<?xml version="1.0" encoding="UTF-8"?> 

<svg xmlns="http://www.w3.org/2000/svg" width="256" height="256" fill-rule="evenodd" viewBox="0 0 44 44">
    <path d="M43.113 5.872c-1.08-2.56-3.246-4.504-5.907-5.3C35.47.137 33.68-.05 31.892.012H12.108C10.32-.05 8.53.137 6.794.572c-2.66.796-4.828 2.74-5.907 5.3a17.24 17.24 0 0 0-.87 6.233v19.79a17.24 17.24 0 0 0 .87 6.233c1.08 2.56 3.246 4.504 5.907 5.3 1.736.434 3.525.623 5.314.56h19.784c1.79.063 3.577-.126 5.314-.56 2.66-.796 4.828-2.74 5.907-5.3a17.24 17.24 0 0 0 .87-6.233v-19.79a17.24 17.24 0 0 0-.869-6.233z" fill="#fff"/>
    <ellipse fill="#fc0" cx="21.61" cy="25.377" rx="13.597" ry="13.581"/>
    <path d="M28.42 11.535V24.24l-.03.01c0 1.26-.1 2.418-.26 3-.8 2.845-3.43 4.91-6.54 4.91-3.755 0-6.76-3.03-6.76-6.78s3.004-6.78 6.76-6.78a6.78 6.78 0 0 1 4.59 1.781 6.83 6.83 0 0 1 1.048 1.214c-.083-.398-.166-.9-.166-1.327V5l8.85 2.708v6.133l-7.493-2.307z" fill="#f33"/>
</svg>